NYCFlights13_ArikRascovsky
…
Again, taking proportions:

propnum_dest %>% select(dest, propnumlate) %>% arrange(desc(propnumlate))

## # A tibble: 105 x 2
##    dest  propnumlate
##    <chr>       <dbl>
##  1 SBN         0.500
##  2 CAE         0.448
##  3 JAC         0.440
##  4 TUL         0.422
##  5 OKC         0.422
##  6 BHM         0.360
##  7 CRW         0.355
##  8 DSM         0.346
##  9 TYS         0.345
## 10 PVD         0.343
## # ... with 95 more rows
…
